module gitlab.com/mwarnerdotme/opencap/db

go 1.17

require (
	github.com/iancoleman/strcase v0.0.0-20190422225806-e506e3ef7365
	github.com/joho/godotenv v1.3.0
	github.com/prisma/prisma-client-go v0.11.0
	github.com/shopspring/decimal v1.2.0
	github.com/takuoki/gocase v1.0.0
)
